{
	"info": {
		"_postman_id": "aee2588a-28a1-4712-a679-645b828e5173",
		"name": "Appkademy Requests",
		"schema": "https://schema.getpostman.com/json/collection/v2.1.0/collection.json",
		"_exporter_id": "22812622"
	},
	"item": [
		{
			"name": "Register user",
			"event": [
				{
					"listen": "test",
					"script": {
						"exec": [
							"pm.test(\"Status code is 201\", function() {\r",
							"    pm.response.to.have.status(201);\r",
							"});\r",
							"\r",
							"pm.test(\"Setting response data as Postman collection variable\",\r",
							"    function() {\r",
							"        let response = pm.response.json();\r",
							"        pm.collectionVariables.set(\"accessToken\", response.token)\r",
							"})\r",
							"\r",
							"pm.test(\"Setting response data as Postman collection variable\",\r",
							"    function() {\r",
							"        let response = pm.response.json();\r",
							"        pm.collectionVariables.set(\"userId\", response.userId)\r",
							"})"
						],
						"type": "text/javascript"
					}
				}
			],
			"request": {
				"method": "POST",
				"header": [],
				"body": {
					"mode": "raw",
					"raw": "{\r\n    \"email\" : \"julian@gmail.com\",\r\n    \"password\" : \"thePassword\"\r\n}",
					"options": {
						"raw": {
							"language": "json"
						}
					}
				},
				"url": {
					"raw": "http://localhost:8080/v1/auth/register",
					"protocol": "http",
					"host": [
						"localhost"
					],
					"port": "8080",
					"path": [
						"v1",
						"auth",
						"register"
					]
				}
			},
			"response": []
		},
		{
			"name": "authenticate",
			"event": [
				{
					"listen": "test",
					"script": {
						"exec": [
							"pm.test(\"Status code is 201\", function() {\r",
							"    pm.response.to.have.status(201);\r",
							"});\r",
							"\r",
							"pm.test(\"Setting response data as Postman collection variable\",\r",
							"    function() {\r",
							"        let response = pm.response.json();\r",
							"        pm.collectionVariables.set(\"accessToken\", response.token)\r",
							"})\r",
							"\r",
							"pm.test(\"Setting response data as Postman collection variable\",\r",
							"    function() {\r",
							"        let response = pm.response.json();\r",
							"        pm.collectionVariables.set(\"userId\", response.userId)\r",
							"})"
						],
						"type": "text/javascript"
					}
				}
			],
			"request": {
				"method": "POST",
				"header": [],
				"body": {
					"mode": "raw",
					"raw": "//if the authenticate endpoint is sent wrong credentials it returns a 403 forbidden\r\n{\r\n    \"email\" : \"s@gmail.com\",\r\n    \"password\" : \"thePassword\"\r\n}",
					"options": {
						"raw": {
							"language": "json"
						}
					}
				},
				"url": {
					"raw": "http://localhost:8080/v1/auth/authenticate",
					"protocol": "http",
					"host": [
						"localhost"
					],
					"port": "8080",
					"path": [
						"v1",
						"auth",
						"authenticate"
					]
				}
			},
			"response": []
		},
		{
			"name": "Create Professor Juan Martinez",
			"event": [
				{
					"listen": "test",
					"script": {
						"exec": [
							"pm.test(\"Status code is 201\", function() {\r",
							"    pm.response.to.have.status(201);\r",
							"});\r",
							"\r",
							"pm.test(\"Setting response data as Postman collection variable\",\r",
							"    function() {\r",
							"        let response = pm.response.json();\r",
							"        pm.collectionVariables.set(\"juanMartinezId\", response.id)\r",
							"})"
						],
						"type": "text/javascript"
					}
				}
			],
			"request": {
				"auth": {
					"type": "bearer",
					"bearer": [
						{
							"key": "token",
							"value": "{{accessToken}}",
							"type": "string"
						}
					]
				},
				"method": "POST",
				"header": [],
				"body": {
					"mode": "raw",
					"raw": "{\r\n    \"userId\" : {{userId}},\r\n    \"firstName\": \"Juan\",\r\n    \"lastName\": \"Martinez\",\r\n    \"email\" : \"juan.martinez@gmail.com\",\r\n    \"shortDescription\": \"Hola! me apasiona la matematica y la enseñanza!\",\r\n    \"fullDescription\": \"Lorem ipsum dolor sit amet, consectetur adipiscing elit. Ut pretium tincidunt felis, nec pretium arcu scelerisque et. Nam feugiat lorem metus, eu dignissim quam consectetur id. Aliquam rutrum purus augue, id tincidunt justo convallis id. Nam consequat velit purus, in viverra sapien rutrum ac. Aliquam in iaculis justo. Nullam iaculis purus vitae odio gravida, ut vestibulum velit bibendum. Curabitur eget nunc vitae nulla molestie posuere laoreet malesuada tellus. Suspendisse a odio nec velit sagittis faucibus a in neque. Morbi varius diam ac sollicitudin lobortis. Vestibulum quis ante ac odio lacinia mollis vel vel purus. Duis imperdiet, mi at accumsan volutpat, quam ante consectetur quam, in vestibulumurna diam id turpis. Morbi eu scelerisque leo, nec pharetra lectus.\",\r\n    \"address\": {\r\n        \"country\": \"ARGENTINA\",\r\n        \"province\": \"CIUDAD_DE_BUENOS_AIRES\",\r\n        \"city\": \"CIUDAD_DE_BUENOS_AIRES\",\r\n        \"streetName\": \"Av Cabildo\",\r\n        \"streetNumber\": \"1234\",\r\n        \"floorApt\": \"4a\"\r\n    },\r\n    \"hourlyRates\": {\r\n        \"ARS\": 140.30,\r\n        \"USD\": 10.00\r\n    },\r\n    \"modalities\": {\r\n        \"FACE_TO_FACE\": true,\r\n        \"REMOTE\": true\r\n    },\r\n    \"proficiencies\": [\r\n        {\r\n            \"masteryLevel\": \"COLLEGE\",\r\n            \"subject\": \"MATH\"\r\n        }\r\n    ],\r\n    \"weeklyWorkingSchedule\": {\r\n        \"checkIn\": \"09:00:00.000\",\r\n        \"checkOut\": \"18:00:00.000\",\r\n        \"sunday\": false,\r\n        \"monday\": true,\r\n        \"tuesday\": false,\r\n        \"wednesday\": true,\r\n        \"thursday\": false,\r\n        \"friday\": false,\r\n        \"saturday\": false\r\n    },\r\n    \"scheduledAppointments\": [],\r\n    \"profilePictureUrl\": \"https://img.freepik.com/foto-gratis/profesor-mayor-sexo-masculino-que-explica-que-escribe-pizarra-verde_23-2148200956.jpg\"\r\n}",
					"options": {
						"raw": {
							"language": "json"
						}
					}
				},
				"url": {
					"raw": "localhost:8080/v1/categories/1/providers/",
					"host": [
						"localhost"
					],
					"port": "8080",
					"path": [
						"v1",
						"categories",
						"1",
						"providers",
						""
					]
				}
			},
			"response": []
		},
		{
			"name": "Create Professor Pedro Sanchez",
			"event": [
				{
					"listen": "test",
					"script": {
						"exec": [
							"pm.test(\"Status code is 201\", function() {\r",
							"    pm.response.to.have.status(201);\r",
							"});\r",
							"\r",
							"pm.test(\"Setting response data as Postman collection variable\",\r",
							"    function() {\r",
							"        let response = pm.response.json();\r",
							"        pm.collectionVariables.set(\"pedroSanchezId\", response.id)\r",
							"})"
						],
						"type": "text/javascript"
					}
				}
			],
			"request": {
				"auth": {
					"type": "bearer",
					"bearer": [
						{
							"key": "token",
							"value": "{{accessToken}}",
							"type": "string"
						}
					]
				},
				"method": "POST",
				"header": [],
				"body": {
					"mode": "raw",
					"raw": "{\r\n    \"userId\" : {{userId}},\r\n    \"firstName\": \"Pedro\",\r\n    \"lastName\": \"Sanchez\",\r\n    \"email\" : \"pedro.sanchez@gmail.com\",\r\n    \"shortDescription\": \"Soy matematico y amo los teoremas de incompletitud de Gödel\",\r\n    \"fullDescription\": \"Lorem ipsum dolor sit amet, consectetur adipiscing elit. Ut pretium tincidunt felis, nec pretium arcu scelerisque et. Nam feugiat lorem metus, eu dignissim quam consectetur id. Aliquam rutrum purus augue, id tincidunt justo convallis id. Nam consequat velit purus, in viverra sapien rutrum ac. Aliquam in iaculis justo. Nullam iaculis purus vitae odio gravida, ut vestibulum velit bibendum. Curabitur eget nunc vitae nulla molestie posuere laoreet malesuada tellus. Suspendisse a odio nec velit sagittis faucibus a in neque. Morbi varius diam ac sollicitudin lobortis. Vestibulum quis ante ac odio lacinia mollis vel vel purus. Duis imperdiet, mi at accumsan volutpat, quam ante consectetur quam, in vestibulumurna diam id turpis. Morbi eu scelerisque leo, nec pharetra lectus.\",\r\n    \"address\": {\r\n        \"country\": \"ARGENTINA\",\r\n        \"province\": \"SANTA_FE\",\r\n        \"city\": \"ROSARIO\",\r\n        \"streetName\": \"Av Random\",\r\n        \"streetNumber\": \"982\",\r\n        \"floorApt\": \"1B\"\r\n    },\r\n    \"hourlyRates\": {\r\n        \"ARS\": 760.30,\r\n        \"USD\": 22.00\r\n    },\r\n    \"modalities\": {\r\n        \"FACE_TO_FACE\": true,\r\n        \"REMOTE\": true\r\n    },\r\n    \"proficiencies\": [\r\n        {\r\n            \"masteryLevel\": \"COLLEGE\",\r\n            \"subject\": \"MATH\"\r\n        }\r\n    ],\r\n    \"weeklyWorkingSchedule\": {\r\n        \"checkIn\": \"09:00:00.000\",\r\n        \"checkOut\": \"18:00:00.000\",\r\n        \"sunday\": false,\r\n        \"monday\": true,\r\n        \"tuesday\": true,\r\n        \"wednesday\": true,\r\n        \"thursday\": false,\r\n        \"friday\": true,\r\n        \"saturday\": false\r\n    },\r\n    \"scheduledAppointments\": [],\r\n    \"profilePictureUrl\": \"https://images.ecestaticos.com/z3OlGPe8BhnLmt2L8zKOnvTYN_8=/0x0:999x750/1200x900/filters:fill(white):format(jpg)/f.elconfidencial.com%2Foriginal%2F944%2F816%2Fe81%2F944816e8192f7094ef5cc02ada386667.jpg\"\r\n}",
					"options": {
						"raw": {
							"language": "json"
						}
					}
				},
				"url": {
					"raw": "localhost:8080/v1/categories/1/providers/",
					"host": [
						"localhost"
					],
					"port": "8080",
					"path": [
						"v1",
						"categories",
						"1",
						"providers",
						""
					]
				}
			},
			"response": []
		},
		{
			"name": "Create Professor Mariano Echeverria",
			"event": [
				{
					"listen": "test",
					"script": {
						"exec": [
							"pm.test(\"Status code is 201\", function() {\r",
							"    pm.response.to.have.status(201);\r",
							"});\r",
							"\r",
							"pm.test(\"Setting response data as Postman collection variable\",\r",
							"    function() {\r",
							"        let response = pm.response.json();\r",
							"        pm.collectionVariables.set(\"marianoEcheverriaId\", response.id)\r",
							"})"
						],
						"type": "text/javascript"
					}
				}
			],
			"request": {
				"auth": {
					"type": "bearer",
					"bearer": [
						{
							"key": "token",
							"value": "{{accessToken}}",
							"type": "string"
						}
					]
				},
				"method": "POST",
				"header": [],
				"body": {
					"mode": "raw",
					"raw": "{\r\n    \"userId\" : {{userId}},\r\n    \"firstName\": \"Mariano\",\r\n    \"lastName\": \"Echeverria\",\r\n    \"email\" : \"mariano.echeverria@gmail.com\",\r\n    \"shortDescription\": \"Aprendamos historia juntos!\",\r\n    \"fullDescription\": \"Lorem ipsum dolor sit amet, consectetur adipiscing elit. Ut pretium tincidunt felis, nec pretium arcu scelerisque et. Nam feugiat lorem metus, eu dignissim quam consectetur id. Aliquam rutrum purus augue, id tincidunt justo convallis id. Nam consequat velit purus, in viverra sapien rutrum ac. Aliquam in iaculis justo. Nullam iaculis purus vitae odio gravida, ut vestibulum velit bibendum. Curabitur eget nunc vitae nulla molestie posuere laoreet malesuada tellus. Suspendisse a odio nec velit sagittis faucibus a in neque. Morbi varius diam ac sollicitudin lobortis. Vestibulum quis ante ac odio lacinia mollis vel vel purus. Duis imperdiet, mi at accumsan volutpat, quam ante consectetur quam, in vestibulumurna diam id turpis. Morbi eu scelerisque leo, nec pharetra lectus.\",\r\n    \"address\": {\r\n        \"country\": \"ARGENTINA\",\r\n        \"province\": \"CIUDAD_DE_BUENOS_AIRES\",\r\n        \"city\": \"CIUDAD_DE_BUENOS_AIRES\",\r\n        \"streetName\": \"Av Libertad\",\r\n        \"streetNumber\": \"1998\",\r\n        \"floorApt\": \"7C\"\r\n    },\r\n    \"hourlyRates\": {\r\n        \"ARS\": 5320.30,\r\n        \"USD\": 35.00\r\n    },\r\n    \"modalities\": {\r\n        \"FACE_TO_FACE\": false,\r\n        \"REMOTE\": true\r\n    },\r\n    \"proficiencies\": [\r\n        {\r\n            \"masteryLevel\": \"COLLEGE\",\r\n            \"subject\": \"HISTORY\"\r\n        }\r\n    ],\r\n    \"weeklyWorkingSchedule\": {\r\n        \"checkIn\": \"12:00:00.000\",\r\n        \"checkOut\": \"18:00:00.000\",\r\n        \"sunday\": false,\r\n        \"monday\": true,\r\n        \"tuesday\": true,\r\n        \"wednesday\": true,\r\n        \"thursday\": false,\r\n        \"friday\": true,\r\n        \"saturday\": true\r\n    },\r\n    \"scheduledAppointments\": [],\r\n    \"profilePictureUrl\": \"https://www.aprendemas.com/co/blog/images/2021/10/profesor_mal_tips.jpg\"\r\n}",
					"options": {
						"raw": {
							"language": "json"
						}
					}
				},
				"url": {
					"raw": "localhost:8080/v1/categories/1/providers/",
					"host": [
						"localhost"
					],
					"port": "8080",
					"path": [
						"v1",
						"categories",
						"1",
						"providers",
						""
					]
				}
			},
			"response": []
		},
		{
			"name": "Create Professor Sergio Celuloso",
			"event": [
				{
					"listen": "test",
					"script": {
						"exec": [
							"pm.test(\"Status code is 201\", function() {\r",
							"    pm.response.to.have.status(201);\r",
							"});\r",
							"\r",
							"pm.test(\"Setting response data as Postman collection variable\",\r",
							"    function() {\r",
							"        let response = pm.response.json();\r",
							"        pm.collectionVariables.set(\"sergioCelulosoId\", response.id)\r",
							"})"
						],
						"type": "text/javascript"
					}
				}
			],
			"request": {
				"auth": {
					"type": "bearer",
					"bearer": [
						{
							"key": "token",
							"value": "{{accessToken}}",
							"type": "string"
						}
					]
				},
				"method": "POST",
				"header": [],
				"body": {
					"mode": "raw",
					"raw": "{\r\n    \"userId\" : {{userId}},\r\n    \"firstName\": \"Sergio\",\r\n    \"lastName\": \"Celuloso\",\r\n    \"email\" : \"sergio.celuloso@gmail.com\",\r\n    \"shortDescription\": \"Vení a aprender biología, no seas un potus\",\r\n    \"fullDescription\": \"Lorem ipsum dolor sit amet, consectetur adipiscing elit. Ut pretium tincidunt felis, nec pretium arcu scelerisque et. Nam feugiat lorem metus, eu dignissim quam consectetur id. Aliquam rutrum purus augue, id tincidunt justo convallis id. Nam consequat velit purus, in viverra sapien rutrum ac. Aliquam in iaculis justo. Nullam iaculis purus vitae odio gravida, ut vestibulum velit bibendum. Curabitur eget nunc vitae nulla molestie posuere laoreet malesuada tellus. Suspendisse a odio nec velit sagittis faucibus a in neque. Morbi varius diam ac sollicitudin lobortis. Vestibulum quis ante ac odio lacinia mollis vel vel purus. Duis imperdiet, mi at accumsan volutpat, quam ante consectetur quam, in vestibulumurna diam id turpis. Morbi eu scelerisque leo, nec pharetra lectus.\",\r\n    \"address\": {\r\n        \"country\": \"ARGENTINA\",\r\n        \"province\": \"CIUDAD_DE_BUENOS_AIRES\",\r\n        \"city\": \"CIUDAD_DE_BUENOS_AIRES\",\r\n        \"streetName\": \"Av Libertad\",\r\n        \"streetNumber\": \"1998\",\r\n        \"floorApt\": \"7C\"\r\n    },\r\n    \"hourlyRates\": {\r\n        \"ARS\": 5320.30,\r\n        \"USD\": 35.00\r\n    },\r\n    \"modalities\": {\r\n        \"FACE_TO_FACE\": false,\r\n        \"REMOTE\": true\r\n    },\r\n    \"proficiencies\": [\r\n        {\r\n            \"masteryLevel\": \"HIGHSCHOOL\",\r\n            \"subject\": \"BIOLOGY\"\r\n        }\r\n    ],\r\n    \"weeklyWorkingSchedule\": {\r\n        \"checkIn\": \"15:00:00.000\",\r\n        \"checkOut\": \"18:00:00.000\",\r\n        \"sunday\": false,\r\n        \"monday\": true,\r\n        \"tuesday\": false,\r\n        \"wednesday\": true,\r\n        \"thursday\": false,\r\n        \"friday\": true,\r\n        \"saturday\": true\r\n    },\r\n    \"scheduledAppointments\": [],\r\n    \"profilePictureUrl\": \"https://www.eltiempo.com/files/article_main_1200/uploads/2023/05/15/64629fadc0c24.png\"\r\n}",
					"options": {
						"raw": {
							"language": "json"
						}
					}
				},
				"url": {
					"raw": "localhost:8080/v1/categories/1/providers/",
					"host": [
						"localhost"
					],
					"port": "8080",
					"path": [
						"v1",
						"categories",
						"1",
						"providers",
						""
					]
				}
			},
			"response": []
		},
		{
			"name": "Create Professor Funes Memorioso",
			"event": [
				{
					"listen": "test",
					"script": {
						"exec": [
							"pm.test(\"Status code is 201\", function() {\r",
							"    pm.response.to.have.status(201);\r",
							"});\r",
							"\r",
							"pm.test(\"Setting response data as Postman collection variable\",\r",
							"    function() {\r",
							"        let response = pm.response.json();\r",
							"        pm.collectionVariables.set(\"funesMemoriosoId\", response.id)\r",
							"})"
						],
						"type": "text/javascript"
					}
				}
			],
			"request": {
				"auth": {
					"type": "bearer",
					"bearer": [
						{
							"key": "token",
							"value": "{{accessToken}}",
							"type": "string"
						}
					]
				},
				"method": "POST",
				"header": [],
				"body": {
					"mode": "raw",
					"raw": "{\r\n    \"userId\" : {{userId}},\r\n    \"firstName\": \"Funes\",\r\n    \"lastName\": \"Memorioso\",\r\n    \"email\" : \"funes.memorioso@gmail.com\",\r\n    \"shortDescription\": \"Aprendamos literatura y el porqué la Biblioteca de Babel es el mejor cuento de borges\",\r\n    \"fullDescription\": \"Lorem ipsum dolor sit amet, consectetur adipiscing elit. Ut pretium tincidunt felis, nec pretium arcu scelerisque et. Nam feugiat lorem metus, eu dignissim quam consectetur id. Aliquam rutrum purus augue, id tincidunt justo convallis id. Nam consequat velit purus, in viverra sapien rutrum ac. Aliquam in iaculis justo. Nullam iaculis purus vitae odio gravida, ut vestibulum velit bibendum. Curabitur eget nunc vitae nulla molestie posuere laoreet malesuada tellus. Suspendisse a odio nec velit sagittis faucibus a in neque. Morbi varius diam ac sollicitudin lobortis. Vestibulum quis ante ac odio lacinia mollis vel vel purus. Duis imperdiet, mi at accumsan volutpat, quam ante consectetur quam, in vestibulumurna diam id turpis. Morbi eu scelerisque leo, nec pharetra lectus.\",\r\n    \"address\": {\r\n        \"country\": \"ARGENTINA\",\r\n        \"province\": \"CIUDAD_DE_BUENOS_AIRES\",\r\n        \"city\": \"CIUDAD_DE_BUENOS_AIRES\",\r\n        \"streetName\": \"Av De las Ruinas Circulares\",\r\n        \"streetNumber\": \"2020\",\r\n        \"floorApt\": \"9D\"\r\n    },\r\n    \"hourlyRates\": {\r\n        \"ARS\": 3347.30,\r\n        \"USD\": 50.00\r\n    },\r\n    \"modalities\": {\r\n        \"FACE_TO_FACE\": true,\r\n        \"REMOTE\": false\r\n    },\r\n    \"proficiencies\": [\r\n        {\r\n            \"masteryLevel\": \"COLLEGE\",\r\n            \"subject\": \"LITERATURE\"\r\n        }\r\n    ],\r\n    \"weeklyWorkingSchedule\": {\r\n        \"checkIn\": \"15:00:00.000\",\r\n        \"checkOut\": \"18:00:00.000\",\r\n        \"sunday\": false,\r\n        \"monday\": true,\r\n        \"tuesday\": false,\r\n        \"wednesday\": true,\r\n        \"thursday\": false,\r\n        \"friday\": true,\r\n        \"saturday\": true\r\n    },\r\n    \"scheduledAppointments\": [],\r\n    \"profilePictureUrl\": \"https://images.ecestaticos.com/bPH71iYNzAlSe5qfjPbrQFSyb04=/0x87:1251x744/600x315/filters:fill(white):format(jpg)/f.elconfidencial.com%2Foriginal%2Faba%2F071%2Fb9d%2Faba071b9d4cebdbfe71a48c3b3067b3a.jpg\"\r\n}",
					"options": {
						"raw": {
							"language": "json"
						}
					}
				},
				"url": {
					"raw": "localhost:8080/v1/categories/1/providers/",
					"host": [
						"localhost"
					],
					"port": "8080",
					"path": [
						"v1",
						"categories",
						"1",
						"providers",
						""
					]
				}
			},
			"response": []
		},
		{
			"name": "Create Professor Brandon Sanderson",
			"event": [
				{
					"listen": "test",
					"script": {
						"exec": [
							"pm.test(\"Status code is 201\", function() {\r",
							"    pm.response.to.have.status(201);\r",
							"});\r",
							"\r",
							"pm.test(\"Setting response data as Postman collection variable\",\r",
							"    function() {\r",
							"        let response = pm.response.json();\r",
							"        pm.collectionVariables.set(\"brandonSandersonId\", response.id)\r",
							"})"
						],
						"type": "text/javascript"
					}
				}
			],
			"request": {
				"auth": {
					"type": "bearer",
					"bearer": [
						{
							"key": "token",
							"value": "{{accessToken}}",
							"type": "string"
						}
					]
				},
				"method": "POST",
				"header": [],
				"body": {
					"mode": "raw",
					"raw": "{\r\n    \"userId\" : {{userId}},\r\n    \"firstName\": \"Brandon\",\r\n    \"lastName\": \"Sanderson\",\r\n    \"email\" : \"brandon.sanderson@gmail.com\",\r\n    \"shortDescription\": \"Mis clases de ingles se adaptan al nivel y necesidades de mis alumnos\",\r\n    \"fullDescription\": \"Lorem ipsum dolor sit amet, consectetur adipiscing elit. Ut pretium tincidunt felis, nec pretium arcu scelerisque et. Nam feugiat lorem metus, eu dignissim quam consectetur id. Aliquam rutrum purus augue, id tincidunt justo convallis id. Nam consequat velit purus, in viverra sapien rutrum ac. Aliquam in iaculis justo. Nullam iaculis purus vitae odio gravida, ut vestibulum velit bibendum. Curabitur eget nunc vitae nulla molestie posuere laoreet malesuada tellus. Suspendisse a odio nec velit sagittis faucibus a in neque. Morbi varius diam ac sollicitudin lobortis. Vestibulum quis ante ac odio lacinia mollis vel vel purus. Duis imperdiet, mi at accumsan volutpat, quam ante consectetur quam, in vestibulumurna diam id turpis. Morbi eu scelerisque leo, nec pharetra lectus.\",\r\n    \"address\": {\r\n        \"country\": \"ARGENTINA\",\r\n        \"province\": \"CIUDAD_DE_BUENOS_AIRES\",\r\n        \"city\": \"CIUDAD_DE_BUENOS_AIRES\",\r\n        \"streetName\": \"Riobamba\",\r\n        \"streetNumber\": \"2153\",\r\n        \"floorApt\": \"PB\"\r\n    },\r\n    \"hourlyRates\": {\r\n        \"ARS\": 5000.30,\r\n        \"USD\": 10.00\r\n    },\r\n    \"modalities\": {\r\n        \"FACE_TO_FACE\": true,\r\n        \"REMOTE\": false\r\n    },\r\n    \"proficiencies\": [\r\n        {\r\n            \"masteryLevel\": \"COLLEGE\",\r\n            \"subject\": \"ENGLISH\"\r\n        },\r\n        {\r\n            \"masteryLevel\": \"HIGHSCHOOL\",\r\n            \"subject\": \"ENGLISH\"\r\n        },\r\n        {\r\n            \"masteryLevel\": \"MIDDLE_SCHOOL\",\r\n            \"subject\": \"ENGLISH\"\r\n        }\r\n    ],\r\n    \"weeklyWorkingSchedule\": {\r\n        \"checkIn\": \"09:00:00.000\",\r\n        \"checkOut\": \"18:00:00.000\",\r\n        \"sunday\": false,\r\n        \"monday\": true,\r\n        \"tuesday\": false,\r\n        \"wednesday\": true,\r\n        \"thursday\": false,\r\n        \"friday\": true,\r\n        \"saturday\": true\r\n    },\r\n    \"scheduledAppointments\": [],\r\n    \"profilePictureUrl\": \"https://watermark.lovepik.com/photo/20211210/large/lovepik-middle-aged-professor-holds-a-teaching-rod-in-picture_501777176.jpg\"\r\n}",
					"options": {
						"raw": {
							"language": "json"
						}
					}
				},
				"url": {
					"raw": "localhost:8080/v1/categories/1/providers/",
					"host": [
						"localhost"
					],
					"port": "8080",
					"path": [
						"v1",
						"categories",
						"1",
						"providers",
						""
					]
				}
			},
			"response": []
		},
		{
			"name": "Create Professor Max Mixto",
			"event": [
				{
					"listen": "test",
					"script": {
						"exec": [
							"pm.test(\"Status code is 201\", function() {\r",
							"    pm.response.to.have.status(201);\r",
							"});\r",
							"\r",
							"pm.test(\"Setting response data as Postman collection variable\",\r",
							"    function() {\r",
							"        let response = pm.response.json();\r",
							"        pm.collectionVariables.set(\"maxMixtoId\", response.id)\r",
							"})"
						],
						"type": "text/javascript"
					}
				}
			],
			"request": {
				"auth": {
					"type": "bearer",
					"bearer": [
						{
							"key": "token",
							"value": "{{accessToken}}",
							"type": "string"
						}
					]
				},
				"method": "POST",
				"header": [],
				"body": {
					"mode": "raw",
					"raw": "{\r\n    \"userId\" : {{userId}},\r\n    \"firstName\": \"Max\",\r\n    \"lastName\": \"Mixto\",\r\n    \"email\" : \"max.mixto@gmail.com\",\r\n    \"shortDescription\": \"Enseño ingles, matematica y biología en todos los niveles!\",\r\n    \"fullDescription\": \"Lorem ipsum dolor sit amet, consectetur adipiscing elit. Ut pretium tincidunt felis, nec pretium arcu scelerisque et. Nam feugiat lorem metus, eu dignissim quam consectetur id. Aliquam rutrum purus augue, id tincidunt justo convallis id. Nam consequat velit purus, in viverra sapien rutrum ac. Aliquam in iaculis justo. Nullam iaculis purus vitae odio gravida, ut vestibulum velit bibendum. Curabitur eget nunc vitae nulla molestie posuere laoreet malesuada tellus. Suspendisse a odio nec velit sagittis faucibus a in neque. Morbi varius diam ac sollicitudin lobortis. Vestibulum quis ante ac odio lacinia mollis vel vel purus. Duis imperdiet, mi at accumsan volutpat, quam ante consectetur quam, in vestibulumurna diam id turpis. Morbi eu scelerisque leo, nec pharetra lectus.\",\r\n    \"address\": {\r\n        \"country\": \"ARGENTINA\",\r\n        \"province\": \"CIUDAD_DE_BUENOS_AIRES\",\r\n        \"city\": \"CIUDAD_DE_BUENOS_AIRES\",\r\n        \"streetName\": \"Riobamba\",\r\n        \"streetNumber\": \"2153\",\r\n        \"floorApt\": \"PB\"\r\n    },\r\n    \"hourlyRates\": {\r\n        \"ARS\": 5000.30,\r\n        \"USD\": 80.00\r\n    },\r\n    \"modalities\": {\r\n        \"FACE_TO_FACE\": true,\r\n        \"REMOTE\": false\r\n    },\r\n    \"proficiencies\": [\r\n        {\r\n            \"masteryLevel\": \"COLLEGE\",\r\n            \"subject\": \"ENGLISH\"\r\n        },\r\n          {\r\n            \"masteryLevel\": \"HIGHSCHOOL\",\r\n            \"subject\": \"ENGLISH\"\r\n        },\r\n          {\r\n            \"masteryLevel\": \"MIDDLE_SCHOOL\",\r\n            \"subject\": \"ENGLISH\"\r\n        },\r\n           {\r\n            \"masteryLevel\": \"COLLEGE\",\r\n            \"subject\": \"MATH\"\r\n        },\r\n          {\r\n            \"masteryLevel\": \"HIGHSCHOOL\",\r\n            \"subject\": \"MATH\"\r\n        },\r\n          {\r\n            \"masteryLevel\": \"MIDDLE_SCHOOL\",\r\n            \"subject\": \"MATH\"\r\n        },\r\n           {\r\n            \"masteryLevel\": \"COLLEGE\",\r\n            \"subject\": \"BIOLOGY\"\r\n        },\r\n          {\r\n            \"masteryLevel\": \"HIGHSCHOOL\",\r\n            \"subject\": \"BIOLOGY\"\r\n        },\r\n        {\r\n            \"masteryLevel\": \"MIDDLE_SCHOOL\",\r\n            \"subject\": \"BIOLOGY\"\r\n        }\r\n    ],\r\n    \"weeklyWorkingSchedule\": {\r\n        \"checkIn\": \"09:00:00.000\",\r\n        \"checkOut\": \"18:00:00.000\",\r\n        \"sunday\": false,\r\n        \"monday\": true,\r\n        \"tuesday\": false,\r\n        \"wednesday\": true,\r\n        \"thursday\": false,\r\n        \"friday\": true,\r\n        \"saturday\": true\r\n    },\r\n    \"scheduledAppointments\": [],\r\n    \"profilePictureUrl\": \"https://mifusa.files.wordpress.com/2015/12/dnesprofesores2711_26ab575e.jpg\"\r\n}",
					"options": {
						"raw": {
							"language": "json"
						}
					}
				},
				"url": {
					"raw": "localhost:8080/v1/categories/1/providers/",
					"host": [
						"localhost"
					],
					"port": "8080",
					"path": [
						"v1",
						"categories",
						"1",
						"providers",
						""
					]
				}
			},
			"response": []
		},
		{
			"name": "Create Professor Vicente Varios",
			"event": [
				{
					"listen": "test",
					"script": {
						"exec": [
							"pm.test(\"Status code is 201\", function() {\r",
							"    pm.response.to.have.status(201);\r",
							"});\r",
							"\r",
							"pm.test(\"Setting response data as Postman collection variable\",\r",
							"    function() {\r",
							"        let response = pm.response.json();\r",
							"        pm.collectionVariables.set(\"vicenteVariosId\", response.id)\r",
							"})"
						],
						"type": "text/javascript"
					}
				}
			],
			"request": {
				"auth": {
					"type": "bearer",
					"bearer": [
						{
							"key": "token",
							"value": "{{accessToken}}",
							"type": "string"
						}
					]
				},
				"method": "POST",
				"header": [],
				"body": {
					"mode": "raw",
					"raw": "{\r\n    \"userId\" : {{userId}},\r\n    \"firstName\": \"Vicente\",\r\n    \"lastName\": \"Varios\",\r\n    \"email\" : \"vicente.varios@gmail.com\",\r\n    \"shortDescription\": \"Enseño literatura, matematica e ingles en todos los niveles!\",\r\n    \"fullDescription\": \"Lorem ipsum dolor sit amet, consectetur adipiscing elit. Ut pretium tincidunt felis, nec pretium arcu scelerisque et. Nam feugiat lorem metus, eu dignissim quam consectetur id. Aliquam rutrum purus augue, id tincidunt justo convallis id. Nam consequat velit purus, in viverra sapien rutrum ac. Aliquam in iaculis justo. Nullam iaculis purus vitae odio gravida, ut vestibulum velit bibendum. Curabitur eget nunc vitae nulla molestie posuere laoreet malesuada tellus. Suspendisse a odio nec velit sagittis faucibus a in neque. Morbi varius diam ac sollicitudin lobortis. Vestibulum quis ante ac odio lacinia mollis vel vel purus. Duis imperdiet, mi at accumsan volutpat, quam ante consectetur quam, in vestibulumurna diam id turpis. Morbi eu scelerisque leo, nec pharetra lectus.\",\r\n    \"address\": {\r\n        \"country\": \"ARGENTINA\",\r\n        \"province\": \"CIUDAD_DE_BUENOS_AIRES\",\r\n        \"city\": \"CIUDAD_DE_BUENOS_AIRES\",\r\n        \"streetName\": \"Riobamba\",\r\n        \"streetNumber\": \"2153\",\r\n        \"floorApt\": \"PB\"\r\n    },\r\n    \"hourlyRates\": {\r\n        \"ARS\": 5000.30,\r\n        \"USD\": 80.00\r\n    },\r\n    \"modalities\": {\r\n        \"FACE_TO_FACE\": true,\r\n        \"REMOTE\": false\r\n    },\r\n    \"proficiencies\": [\r\n        {\r\n            \"masteryLevel\": \"COLLEGE\",\r\n            \"subject\": \"ENGLISH\"\r\n        },\r\n          {\r\n            \"masteryLevel\": \"HIGHSCHOOL\",\r\n            \"subject\": \"ENGLISH\"\r\n        },\r\n          {\r\n            \"masteryLevel\": \"MIDDLE_SCHOOL\",\r\n            \"subject\": \"ENGLISH\"\r\n        },\r\n           {\r\n            \"masteryLevel\": \"COLLEGE\",\r\n            \"subject\": \"MATH\"\r\n        },\r\n          {\r\n            \"masteryLevel\": \"HIGHSCHOOL\",\r\n            \"subject\": \"MATH\"\r\n        },\r\n          {\r\n            \"masteryLevel\": \"MIDDLE_SCHOOL\",\r\n            \"subject\": \"MATH\"\r\n        },\r\n           {\r\n            \"masteryLevel\": \"COLLEGE\",\r\n            \"subject\": \"LITERATURE\"\r\n        },\r\n          {\r\n            \"masteryLevel\": \"HIGHSCHOOL\",\r\n            \"subject\": \"LITERATURE\"\r\n        },\r\n        {\r\n            \"masteryLevel\": \"MIDDLE_SCHOOL\",\r\n            \"subject\": \"LITERATURE\"\r\n        }\r\n    ],\r\n    \"weeklyWorkingSchedule\": {\r\n        \"checkIn\": \"09:00:00.000\",\r\n        \"checkOut\": \"18:00:00.000\",\r\n        \"sunday\": false,\r\n        \"monday\": true,\r\n        \"tuesday\": false,\r\n        \"wednesday\": true,\r\n        \"thursday\": false,\r\n        \"friday\": true,\r\n        \"saturday\": true\r\n    },\r\n    \"scheduledAppointments\": [],\r\n    \"profilePictureUrl\": \"https://estaticos-cdn.elperiodico.com/clip/78c08fc2-525f-4513-9694-acb1e23d4f62_alta-libre-aspect-ratio_default_0.jpg\"\r\n}",
					"options": {
						"raw": {
							"language": "json"
						}
					}
				},
				"url": {
					"raw": "localhost:8080/v1/categories/1/providers/",
					"host": [
						"localhost"
					],
					"port": "8080",
					"path": [
						"v1",
						"categories",
						"1",
						"providers",
						""
					]
				}
			},
			"response": []
		},
		{
			"name": "Create Professor Calculina Gomez",
			"event": [
				{
					"listen": "test",
					"script": {
						"exec": [
							"pm.test(\"Status code is 201\", function() {\r",
							"    pm.response.to.have.status(201);\r",
							"});\r",
							"\r",
							"pm.test(\"Setting response data as Postman collection variable\",\r",
							"    function() {\r",
							"        let response = pm.response.json();\r",
							"        pm.collectionVariables.set(\"calculinaGomezId\", response.id)\r",
							"})"
						],
						"type": "text/javascript"
					}
				}
			],
			"request": {
				"auth": {
					"type": "bearer",
					"bearer": [
						{
							"key": "token",
							"value": "{{accessToken}}",
							"type": "string"
						}
					]
				},
				"method": "POST",
				"header": [],
				"body": {
					"mode": "raw",
					"raw": "{\r\n    \"userId\" : {{userId}},\r\n    \"firstName\": \"Calculina\",\r\n    \"lastName\": \"Gomez\",\r\n    \"email\" : \"calculina.gomez@gmail.com\",\r\n    \"shortDescription\": \"Enseño matematica e historia en todos los niveles!\",\r\n    \"fullDescription\": \"Lorem ipsum dolor sit amet, consectetur adipiscing elit. Ut pretium tincidunt felis, nec pretium arcu scelerisque et. Nam feugiat lorem metus, eu dignissim quam consectetur id. Aliquam rutrum purus augue, id tincidunt justo convallis id. Nam consequat velit purus, in viverra sapien rutrum ac. Aliquam in iaculis justo. Nullam iaculis purus vitae odio gravida, ut vestibulum velit bibendum. Curabitur eget nunc vitae nulla molestie posuere laoreet malesuada tellus. Suspendisse a odio nec velit sagittis faucibus a in neque. Morbi varius diam ac sollicitudin lobortis. Vestibulum quis ante ac odio lacinia mollis vel vel purus. Duis imperdiet, mi at accumsan volutpat, quam ante consectetur quam, in vestibulumurna diam id turpis. Morbi eu scelerisque leo, nec pharetra lectus.\",\r\n    \"address\": {\r\n        \"country\": \"ARGENTINA\",\r\n        \"province\": \"CIUDAD_DE_BUENOS_AIRES\",\r\n        \"city\": \"CIUDAD_DE_BUENOS_AIRES\",\r\n        \"streetName\": \"Riobamba\",\r\n        \"streetNumber\": \"2153\",\r\n        \"floorApt\": \"PB\"\r\n    },\r\n    \"hourlyRates\": {\r\n        \"ARS\": 5000.30,\r\n        \"USD\": 80.00\r\n    },\r\n    \"modalities\": {\r\n        \"FACE_TO_FACE\": true,\r\n        \"REMOTE\": false\r\n    },\r\n    \"proficiencies\": [\r\n        {\r\n            \"masteryLevel\": \"COLLEGE\",\r\n            \"subject\": \"HISTORY\"\r\n        },\r\n          {\r\n            \"masteryLevel\": \"HIGHSCHOOL\",\r\n            \"subject\": \"HISTORY\"\r\n        },\r\n          {\r\n            \"masteryLevel\": \"MIDDLE_SCHOOL\",\r\n            \"subject\": \"HISTORY\"\r\n        },\r\n           {\r\n            \"masteryLevel\": \"COLLEGE\",\r\n            \"subject\": \"MATH\"\r\n        }\r\n    ],\r\n    \"weeklyWorkingSchedule\": {\r\n        \"checkIn\": \"09:00:00.000\",\r\n        \"checkOut\": \"18:00:00.000\",\r\n        \"sunday\": false,\r\n        \"monday\": true,\r\n        \"tuesday\": false,\r\n        \"wednesday\": true,\r\n        \"thursday\": false,\r\n        \"friday\": true,\r\n        \"saturday\": true\r\n    },\r\n    \"scheduledAppointments\": [],\r\n    \"profilePictureUrl\": \"https://imagenes.20minutos.es/files/image_654_369/uploads/imagenes/2019/06/02/902982.jpg\"\r\n}",
					"options": {
						"raw": {
							"language": "json"
						}
					}
				},
				"url": {
					"raw": "localhost:8080/v1/categories/1/providers/",
					"host": [
						"localhost"
					],
					"port": "8080",
					"path": [
						"v1",
						"categories",
						"1",
						"providers",
						""
					]
				}
			},
			"response": []
		},
		{
			"name": "Get professor by ID",
			"event": [
				{
					"listen": "test",
					"script": {
						"exec": [
							"pm.test(\"Status code is 200\", function() {\r",
							"    pm.response.to.have.status(200);\r",
							"});"
						],
						"type": "text/javascript"
					}
				}
			],
			"request": {
				"method": "GET",
				"header": [],
				"url": {
					"raw": "localhost:8080/v1/categories/1/providers/{{pedroSanchezId}}",
					"host": [
						"localhost"
					],
					"port": "8080",
					"path": [
						"v1",
						"categories",
						"1",
						"providers",
						"{{pedroSanchezId}}"
					]
				}
			},
			"response": []
		},
		{
			"name": "Search professor by id",
			"event": [
				{
					"listen": "test",
					"script": {
						"exec": [
							"pm.test(\"Status code is 200\", function() {\r",
							"    pm.response.to.have.status(200);\r",
							"});"
						],
						"type": "text/javascript"
					}
				}
			],
			"request": {
				"method": "POST",
				"header": [],
				"body": {
					"mode": "raw",
					"raw": "{\r\n    \"pageNumber\" : 1,\r\n    \"pageSize\" : 10,\r\n    \"teacherIds\" : [{{pedroSanchezId}}, {{marianoEcheverriaId}}]\r\n}",
					"options": {
						"raw": {
							"language": "json"
						}
					}
				},
				"url": {
					"raw": "localhost:8080/v1/categories/1/providers/search",
					"host": [
						"localhost"
					],
					"port": "8080",
					"path": [
						"v1",
						"categories",
						"1",
						"providers",
						"search"
					]
				}
			},
			"response": []
		},
		{
			"name": "Search professor by teaching proficiency(subject AND mastery)",
			"event": [
				{
					"listen": "test",
					"script": {
						"exec": [
							"pm.test(\"Status code is 200\", function() {\r",
							"    pm.response.to.have.status(200);\r",
							"});"
						],
						"type": "text/javascript"
					}
				}
			],
			"request": {
				"method": "POST",
				"header": [],
				"body": {
					"mode": "raw",
					"raw": "{\r\n    \"pageNumber\" : 1,\r\n    \"pageSize\" : 10,\r\n    \"teachingProficiency\" : {\r\n        \"subject\" : \"MATH\",\r\n        \"masteryLevel\" : \"COLLEGE\"\r\n    }\r\n}",
					"options": {
						"raw": {
							"language": "json"
						}
					}
				},
				"url": {
					"raw": "localhost:8080/v1/categories/1/providers/search",
					"host": [
						"localhost"
					],
					"port": "8080",
					"path": [
						"v1",
						"categories",
						"1",
						"providers",
						"search"
					]
				}
			},
			"response": []
		},
		{
			"name": "Search professor by teaching proficiency(subject ONLY) Copy",
			"event": [
				{
					"listen": "test",
					"script": {
						"exec": [
							"pm.test(\"Status code is 200\", function() {\r",
							"    pm.response.to.have.status(200);\r",
							"});"
						],
						"type": "text/javascript"
					}
				}
			],
			"request": {
				"method": "POST",
				"header": [],
				"body": {
					"mode": "raw",
					"raw": "{\r\n    \"pageNumber\" : 1,\r\n    \"pageSize\" : 10,\r\n    \"teachingProficiency\" : {\r\n        \"subject\" : \"MATH\"\r\n    }\r\n}",
					"options": {
						"raw": {
							"language": "json"
						}
					}
				},
				"url": {
					"raw": "localhost:8080/v1/categories/1/providers/search",
					"host": [
						"localhost"
					],
					"port": "8080",
					"path": [
						"v1",
						"categories",
						"1",
						"providers",
						"search"
					]
				}
			},
			"response": []
		},
		{
			"name": "Search professor by teaching proficiency AND city",
			"event": [
				{
					"listen": "test",
					"script": {
						"exec": [
							"pm.test(\"Status code is 200\", function() {\r",
							"    pm.response.to.have.status(200);\r",
							"});"
						],
						"type": "text/javascript"
					}
				}
			],
			"request": {
				"method": "POST",
				"header": [],
				"body": {
					"mode": "raw",
					"raw": "{\r\n    \"pageNumber\" : 1,\r\n    \"pageSize\" : 10,\r\n        \"teachingProficiency\" : {\r\n        \"subject\" : \"MATH\",\r\n        \"masteryLevel\" : \"COLLEGE\"\r\n    },\r\n    \"city\" : \"ROSARIO\"\r\n}",
					"options": {
						"raw": {
							"language": "json"
						}
					}
				},
				"url": {
					"raw": "localhost:8080/v1/categories/1/providers/search",
					"host": [
						"localhost"
					],
					"port": "8080",
					"path": [
						"v1",
						"categories",
						"1",
						"providers",
						"search"
					]
				}
			},
			"response": []
		},
		{
			"name": "Search professor by country",
			"event": [
				{
					"listen": "test",
					"script": {
						"exec": [
							"pm.test(\"Status code is 200\", function() {\r",
							"    pm.response.to.have.status(200);\r",
							"});"
						],
						"type": "text/javascript"
					}
				}
			],
			"request": {
				"method": "POST",
				"header": [],
				"body": {
					"mode": "raw",
					"raw": "{\r\n    \"pageNumber\" : 1,\r\n    \"pageSize\" : 10,\r\n    \"country\" : \"ARGENTINA\"\r\n}",
					"options": {
						"raw": {
							"language": "json"
						}
					}
				},
				"url": {
					"raw": "localhost:8080/v1/categories/1/providers/search",
					"host": [
						"localhost"
					],
					"port": "8080",
					"path": [
						"v1",
						"categories",
						"1",
						"providers",
						"search"
					]
				}
			},
			"response": []
		},
		{
			"name": "Search professor by province",
			"event": [
				{
					"listen": "test",
					"script": {
						"exec": [
							"pm.test(\"Status code is 200\", function() {\r",
							"    pm.response.to.have.status(200);\r",
							"});"
						],
						"type": "text/javascript"
					}
				}
			],
			"request": {
				"method": "POST",
				"header": [],
				"body": {
					"mode": "raw",
					"raw": "{\r\n    \"pageNumber\" : 1,\r\n    \"pageSize\" : 10,\r\n    \"province\" : \"SANTA_FE\"\r\n}",
					"options": {
						"raw": {
							"language": "json"
						}
					}
				},
				"url": {
					"raw": "localhost:8080/v1/categories/1/providers/search",
					"host": [
						"localhost"
					],
					"port": "8080",
					"path": [
						"v1",
						"categories",
						"1",
						"providers",
						"search"
					]
				}
			},
			"response": []
		},
		{
			"name": "Search professor by city",
			"event": [
				{
					"listen": "test",
					"script": {
						"exec": [
							"pm.test(\"Status code is 200\", function() {\r",
							"    pm.response.to.have.status(200);\r",
							"});"
						],
						"type": "text/javascript"
					}
				}
			],
			"request": {
				"method": "POST",
				"header": [],
				"body": {
					"mode": "raw",
					"raw": "{\r\n    \"pageNumber\" : 1,\r\n    \"pageSize\" : 10,\r\n    \"city\" : \"ROSARIO\"\r\n}",
					"options": {
						"raw": {
							"language": "json"
						}
					}
				},
				"url": {
					"raw": "localhost:8080/v1/categories/1/providers/search",
					"host": [
						"localhost"
					],
					"port": "8080",
					"path": [
						"v1",
						"categories",
						"1",
						"providers",
						"search"
					]
				}
			},
			"response": []
		},
		{
			"name": "Delete professor Juan Martinez",
			"event": [
				{
					"listen": "test",
					"script": {
						"exec": [
							"pm.test(\"Status code is 200\", function() {\r",
							"    pm.response.to.have.status(202);\r",
							"});"
						],
						"type": "text/javascript"
					}
				}
			],
			"request": {
				"auth": {
					"type": "bearer",
					"bearer": [
						{
							"key": "token",
							"value": "{{accessToken}}",
							"type": "string"
						}
					]
				},
				"method": "DELETE",
				"header": [],
				"url": {
					"raw": "localhost:8080/v1/categories/1/providers/{{juanMartinezId}}",
					"host": [
						"localhost"
					],
					"port": "8080",
					"path": [
						"v1",
						"categories",
						"1",
						"providers",
						"{{juanMartinezId}}"
					]
				}
			},
			"response": []
		},
		{
			"name": "Create Student Belisario Justiniano",
			"event": [
				{
					"listen": "test",
					"script": {
						"exec": [
							"pm.test(\"Status code is 201\", function() {\r",
							"    pm.response.to.have.status(201);\r",
							"});\r",
							"\r",
							"pm.test(\"Setting response data as Postman collection variable\",\r",
							"    function() {\r",
							"        let response = pm.response.json();\r",
							"        pm.collectionVariables.set(\"belisarioJustinianoId\", response.id)\r",
							"})"
						],
						"type": "text/javascript"
					}
				}
			],
			"request": {
				"auth": {
					"type": "noauth"
				},
				"method": "POST",
				"header": [],
				"body": {
					"mode": "raw",
					"raw": "{\r\n    \"userId\" : {{userId}},\r\n    \"firstName\": \"Belisario\",\r\n    \"lastName\": \"Justiniano\",\r\n    \"email\" : \"belisario.onmywaytorome@gmail.com\"//,\r\n    /*\r\n    \"address\": {\r\n        \"country\": \"ARGENTINA\",\r\n        \"province\": \"CIUDAD_DE_BUENOS_AIRES\",\r\n        \"city\": \"CIUDAD_DE_BUENOS_AIRES\",\r\n        \"streetName\": \"Av Roma\",\r\n        \"streetNumber\": \"1555\",\r\n        \"floorApt\": \"1a\"\r\n    },\r\n    */\r\n    //\"scheduledAppointments\": []\r\n}",
					"options": {
						"raw": {
							"language": "json"
						}
					}
				},
				"url": {
					"raw": "localhost:8080/v1/categories/1/customers/",
					"host": [
						"localhost"
					],
					"port": "8080",
					"path": [
						"v1",
						"categories",
						"1",
						"customers",
						""
					]
				}
			},
			"response": []
		},
		{
			"name": "Get student by id",
			"event": [
				{
					"listen": "test",
					"script": {
						"exec": [
							"pm.test(\"Status code is 200\", function() {\r",
							"    pm.response.to.have.status(200);\r",
							"});"
						],
						"type": "text/javascript"
					}
				}
			],
			"request": {
				"auth": {
					"type": "bearer",
					"bearer": [
						{
							"key": "token",
							"value": "{{accessToken}}",
							"type": "string"
						}
					]
				},
				"method": "GET",
				"header": [],
				"url": {
					"raw": "localhost:8080/v1/categories/1/customers/{{belisarioJustinianoId}}",
					"host": [
						"localhost"
					],
					"port": "8080",
					"path": [
						"v1",
						"categories",
						"1",
						"customers",
						"{{belisarioJustinianoId}}"
					]
				}
			},
			"response": []
		},
		{
			"name": "Ceate Appointment PedroSanchez - BelisarioJustiniano",
			"event": [
				{
					"listen": "test",
					"script": {
						"exec": [
							"pm.test(\"Status code is 201\", function() {\r",
							"    pm.response.to.have.status(201);\r",
							"});"
						],
						"type": "text/javascript"
					}
				}
			],
			"request": {
				"auth": {
					"type": "bearer",
					"bearer": [
						{
							"key": "token",
							"value": "{{accessToken}}",
							"type": "string"
						}
					]
				},
				"method": "POST",
				"header": [],
				"body": {
					"mode": "raw",
					"raw": "{\r\n    \"startsOn\" : \"2023-11-13T17:00:00.000Z\",\r\n    \"endsOn\" : \"2023-11-13T17:30:00.000Z\",\r\n    \"teacherId\" : {{pedroSanchezId}},\r\n    \"studentId\" : {{belisarioJustinianoId}}\r\n}",
					"options": {
						"raw": {
							"language": "json"
						}
					}
				},
				"url": {
					"raw": "localhost:8080/v1/categories/1/appointments/",
					"host": [
						"localhost"
					],
					"port": "8080",
					"path": [
						"v1",
						"categories",
						"1",
						"appointments",
						""
					]
				}
			},
			"response": []
		},
		{
			"name": "Create signup request Teacher Marcelo Ramallo",
			"event": [
				{
					"listen": "test",
					"script": {
						"exec": [
							"pm.test(\"Status code is 201\", function() {\r",
							"    pm.response.to.have.status(201);\r",
							"});\r",
							"\r",
							"pm.test(\"Setting response data as Postman collection variable\",\r",
							"    function() {\r",
							"        let response = pm.response.json();\r",
							"        pm.collectionVariables.set(\"signupId\", response.id)\r",
							"})"
						],
						"type": "text/javascript"
					}
				}
			],
			"request": {
				"auth": {
					"type": "bearer",
					"bearer": [
						{
							"key": "token",
							"value": "{{accessToken}}",
							"type": "string"
						}
					]
				},
				"method": "POST",
				"header": [],
				"body": {
					"mode": "raw",
					"raw": "{\r\n    \"teacherFormData\" : {\r\n        \"firstName\": \"Marcelo\",\r\n        \"lastName\": \"Ramallo\",\r\n        \"email\" : \"marcelo.ramallo@gmail.com\",\r\n        \"shortDescription\": \"Hola! me apasiona la matematica y la enseñanza!\",\r\n        \"fullDescription\": \"Lorem ipsum dolor sit amet, consectetur adipiscing elit. Ut pretium tincidunt felis, nec pretium arcu scelerisque et. Nam feugiat lorem metus, eu dignissim quam consectetur id. Aliquam rutrum purus augue, id tincidunt justo convallis id. Nam consequat velit purus, in viverra sapien rutrum ac. Aliquam in iaculis justo. Nullam iaculis purus vitae odio gravida, ut vestibulum velit bibendum. Curabitur eget nunc vitae nulla molestie posuere laoreet malesuada tellus. Suspendisse a odio nec velit sagittis faucibus a in neque. Morbi varius diam ac sollicitudin lobortis. Vestibulum quis ante ac odio lacinia mollis vel vel purus. Duis imperdiet, mi at accumsan volutpat, quam ante consectetur quam, in vestibulumurna diam id turpis. Morbi eu scelerisque leo, nec pharetra lectus.\",\r\n        \"address\": {\r\n        \"country\": \"ARGENTINA\",\r\n        \"province\": \"CIUDAD_DE_BUENOS_AIRES\",\r\n        \"city\": \"CIUDAD_DE_BUENOS_AIRES\",\r\n        \"streetName\": \"Av Cabildo\",\r\n        \"streetNumber\": \"1234\",\r\n        \"floorApt\": \"4a\"\r\n        },\r\n        \"hourlyRates\": {\r\n        \"ARS\": 140.30,\r\n        \"USD\": 10.00\r\n        },\r\n        \"modalities\": {\r\n        \"FACE_TO_FACE\": true,\r\n        \"REMOTE\": true\r\n        },\r\n        \"proficiencies\": [\r\n        {\r\n            \"masteryLevel\": \"COLLEGE\",\r\n            \"subject\": \"MATH\"\r\n        }\r\n        ],\r\n        \"weeklyWorkingSchedule\": {\r\n            \"checkIn\": \"09:00:00.000\",\r\n            \"checkOut\": \"18:00:00.000\",\r\n            \"sunday\": false,\r\n            \"monday\": true,\r\n            \"tuesday\": false,\r\n            \"wednesday\": true,\r\n            \"thursday\": false,\r\n            \"friday\": false,\r\n            \"saturday\": false\r\n        },\r\n        \"scheduledAppointments\": [],\r\n        \"profilePictureUrl\": \"https://img.freepik.com/foto-gratis/profesor-mayor-sexo-masculino-que-explica-que-escribe-pizarra-verde_23-2148200956.jpg\"\r\n    }\r\n}",
					"options": {
						"raw": {
							"language": "json"
						}
					}
				},
				"url": {
					"raw": "localhost:8080/v1/categories/1/providers/register/",
					"host": [
						"localhost"
					],
					"port": "8080",
					"path": [
						"v1",
						"categories",
						"1",
						"providers",
						"register",
						""
					]
				}
			},
			"response": []
		},
		{
			"name": "Get Signup Request by id",
			"request": {
				"auth": {
					"type": "bearer",
					"bearer": [
						{
							"key": "token",
							"value": "{{accessToken}}",
							"type": "string"
						}
					]
				},
				"method": "GET",
				"header": [],
				"url": {
					"raw": "localhost:8080/v1/categories/1/providers/register/{{signupId}}",
					"host": [
						"localhost"
					],
					"port": "8080",
					"path": [
						"v1",
						"categories",
						"1",
						"providers",
						"register",
						"{{signupId}}"
					]
				}
			},
			"response": []
		}
	],
	"variable": [
		{
			"key": "juanMartinezId",
			"value": ""
		},
		{
			"key": "pedroSanchezId",
			"value": ""
		},
		{
			"key": "marianoEcheverriaId",
			"value": ""
		},
		{
			"key": "sergioCelulosoId",
			"value": ""
		},
		{
			"key": "funesMemoriosoId",
			"value": ""
		},
		{
			"key": "brandonSandersonId",
			"value": ""
		},
		{
			"key": "maxMixtoId",
			"value": ""
		},
		{
			"key": "vicenteVariosId",
			"value": ""
		},
		{
			"key": "calculinaGomezId",
			"value": ""
		},
		{
			"key": "belisarioJustinianoId",
			"value": ""
		},
		{
			"key": "signupId",
			"value": ""
		},
		{
			"key": "accessToken",
			"value": ""
		},
		{
			"key": "userId",
			"value": ""
		}
	]
}